{
  "dev": {
    "awscloudformation": {
      "AuthRoleName": "amplify-instrumentlivemonito-dev-200824-authRole",
      "UnauthRoleArn": "arn:aws:iam::144614597270:role/amplify-instrumentlivemonito-dev-200824-unauthRole",
      "AuthRoleArn": "arn:aws:iam::144614597270:role/amplify-instrumentlivemonito-dev-200824-authRole",
      "Region": "us-east-2",
      "DeploymentBucketName": "amplify-instrumentlivemonito-dev-200824-deployment",
      "UnauthRoleName": "amplify-instrumentlivemonito-dev-200824-unauthRole",
      "StackName": "amplify-instrumentlivemonito-dev-200824",
      "StackId": "arn:aws:cloudformation:us-east-2:144614597270:stack/amplify-instrumentlivemonito-dev-200824/5a136280-2ede-11ec-9cec-0aa9a9fbbf78",
      "AmplifyAppId": "dy8jq0vg8jldq"
    }
  }
}